159	POSA100718-1-1	1209	Americano	478	FLORES LA UNION
160	POSA100718-1-2	3280	Oriental White	155	NEUMANN FLOWERS NEUFLOWERS CIA. LTDA.
161	POSA100718-1-3	547	Stargazer	155	NEUMANN FLOWERS NEUFLOWERS CIA. LTDA.
162	POSA100718-1-4	685	Asiatic White	155	NEUMANN FLOWERS NEUFLOWERS CIA. LTDA.
162	POSA100718-1-4	685	Asiatic White	157	LATINFLOR S.A.
163	POSA100718-1-5	1379	Aster White	153	AGROPRIM FARMS CIA. LTDA.
164	POSA100718-1-6	744	Sunflower	153	AGROPRIM FARMS CIA. LTDA.
164	POSA100718-1-6	744	Sunflower	157	LATINFLOR S.A.
165	POSA100718-1-7	277	Freedom	92	DAVINCI ROSES
165	POSA100718-1-7	277	Freedom	112	FLORAROMA S. A.
165	POSA100718-1-7	277	Freedom	148	CERESFARMS CIA. LTDA.
165	POSA100718-1-7	277	Freedom	181	GARDAEXPORT S.A.
165	POSA100718-1-7	277	Freedom	195	FLOWER VILLAGE 
165	POSA100718-1-7	277	Freedom	220	HACIENDA SANTA FÉ, FESAHA CIA. LTDA
165	POSA100718-1-7	277	Freedom	242	AGROCOEX
165	POSA100718-1-7	277	Freedom	266	FLORES DEL COTOPAXI S.A
165	POSA100718-1-7	277	Freedom	341	AGRINAG S.A.
165	POSA100718-1-7	277	Freedom	384	JOYGARDENS S.A.
165	POSA100718-1-7	277	Freedom	391	FLORES VERDES S.A. FLORDES
165	POSA100718-1-7	277	Freedom	439	INFLOWERS
165	POSA100718-1-7	277	Freedom	440	SISAPAMBA ROSAS
165	POSA100718-1-7	277	Freedom	442	QUALISA
165	POSA100718-1-7	277	Freedom	446	ALBRA ROSE
165	POSA100718-1-7	277	Freedom	449	FLORANA FARMS S.A.
165	POSA100718-1-7	277	Freedom	455	MURADIAN ROSES
165	POSA100718-1-7	277	Freedom	456	MERINO ROSES
165	POSA100718-1-7	277	Freedom	458	LA TOSCANA
165	POSA100718-1-7	277	Freedom	461	PACIFIC BOUQUET
165	POSA100718-1-7	277	Freedom	464	OLIMPO
165	POSA100718-1-7	277	Freedom	480	FLORTECA
165	POSA100718-1-7	277	Freedom	481	ALAMAR FLOWERS
165	POSA100718-1-7	277	Freedom	484	TOMAS FLOWERS GM
166	POSA100718-1-8	111	Vendela	92	DAVINCI ROSES
166	POSA100718-1-8	111	Vendela	112	FLORAROMA S. A.
166	POSA100718-1-8	111	Vendela	181	GARDAEXPORT S.A.
166	POSA100718-1-8	111	Vendela	220	HACIENDA SANTA FÉ, FESAHA CIA. LTDA
166	POSA100718-1-8	111	Vendela	242	AGROCOEX
166	POSA100718-1-8	111	Vendela	266	FLORES DEL COTOPAXI S.A
166	POSA100718-1-8	111	Vendela	341	AGRINAG S.A.
166	POSA100718-1-8	111	Vendela	384	JOYGARDENS S.A.
166	POSA100718-1-8	111	Vendela	439	INFLOWERS
166	POSA100718-1-8	111	Vendela	440	SISAPAMBA ROSAS
166	POSA100718-1-8	111	Vendela	442	QUALISA
166	POSA100718-1-8	111	Vendela	455	MURADIAN ROSES
166	POSA100718-1-8	111	Vendela	456	MERINO ROSES
166	POSA100718-1-8	111	Vendela	458	LA TOSCANA
166	POSA100718-1-8	111	Vendela	464	OLIMPO
166	POSA100718-1-8	111	Vendela	480	FLORTECA
166	POSA100718-1-8	111	Vendela	481	ALAMAR FLOWERS
166	POSA100718-1-8	111	Vendela	482	MYSTIC FLOWERS S.A.
167	POSA100718-1-9	2827	Hypericum Colors	153	AGROPRIM FARMS CIA. LTDA.
167	POSA100718-1-9	2827	Hypericum Colors	442	QUALISA
168	POSA100718-1-10	755	Stock White	465	AMBAR
168	POSA100718-1-10	755	Stock White	468	JHESSIA FLOWERS
169	POSA100718-1-11	2824	Gerbera	153	AGROPRIM FARMS CIA. LTDA.
170	POSA100718-1-12	812	Delphinium Blue	153	AGROPRIM FARMS CIA. LTDA.
170	POSA100718-1-12	812	Delphinium Blue	157	LATINFLOR S.A.
170	POSA100718-1-12	812	Delphinium Blue	476	SUMMER GARDEN
171	POSA100718-1-13	2807	Agapanthus	153	AGROPRIM FARMS CIA. LTDA.
172	POSA100718-1-14	277	Freedom	92	DAVINCI ROSES
172	POSA100718-1-14	277	Freedom	112	FLORAROMA S. A.
172	POSA100718-1-14	277	Freedom	148	CERESFARMS CIA. LTDA.
172	POSA100718-1-14	277	Freedom	181	GARDAEXPORT S.A.
172	POSA100718-1-14	277	Freedom	195	FLOWER VILLAGE 
172	POSA100718-1-14	277	Freedom	220	HACIENDA SANTA FÉ, FESAHA CIA. LTDA
172	POSA100718-1-14	277	Freedom	242	AGROCOEX
172	POSA100718-1-14	277	Freedom	341	AGRINAG S.A.
172	POSA100718-1-14	277	Freedom	384	JOYGARDENS S.A.
172	POSA100718-1-14	277	Freedom	391	FLORES VERDES S.A. FLORDES
172	POSA100718-1-14	277	Freedom	439	INFLOWERS
172	POSA100718-1-14	277	Freedom	442	QUALISA
172	POSA100718-1-14	277	Freedom	446	ALBRA ROSE
172	POSA100718-1-14	277	Freedom	449	FLORANA FARMS S.A.
172	POSA100718-1-14	277	Freedom	455	MURADIAN ROSES
172	POSA100718-1-14	277	Freedom	456	MERINO ROSES
172	POSA100718-1-14	277	Freedom	458	LA TOSCANA
172	POSA100718-1-14	277	Freedom	461	PACIFIC BOUQUET
172	POSA100718-1-14	277	Freedom	464	OLIMPO
172	POSA100718-1-14	277	Freedom	480	FLORTECA
172	POSA100718-1-14	277	Freedom	481	ALAMAR FLOWERS
172	POSA100718-1-14	277	Freedom	484	TOMAS FLOWERS GM
173	POSA100718-1-15	111	Vendela	63	GALAXYTRADE CORP CIA. LTDA
173	POSA100718-1-15	111	Vendela	92	DAVINCI ROSES
173	POSA100718-1-15	111	Vendela	177	SANDE ECUADOR
173	POSA100718-1-15	111	Vendela	181	GARDAEXPORT S.A.
173	POSA100718-1-15	111	Vendela	220	HACIENDA SANTA FÉ, FESAHA CIA. LTDA
173	POSA100718-1-15	111	Vendela	242	AGROCOEX
173	POSA100718-1-15	111	Vendela	341	AGRINAG S.A.
173	POSA100718-1-15	111	Vendela	384	JOYGARDENS S.A.
173	POSA100718-1-15	111	Vendela	439	INFLOWERS
173	POSA100718-1-15	111	Vendela	440	SISAPAMBA ROSAS
173	POSA100718-1-15	111	Vendela	442	QUALISA
173	POSA100718-1-15	111	Vendela	455	MURADIAN ROSES
173	POSA100718-1-15	111	Vendela	456	MERINO ROSES
173	POSA100718-1-15	111	Vendela	458	LA TOSCANA
173	POSA100718-1-15	111	Vendela	464	OLIMPO
173	POSA100718-1-15	111	Vendela	480	FLORTECA
173	POSA100718-1-15	111	Vendela	481	ALAMAR FLOWERS
173	POSA100718-1-15	111	Vendela	482	MYSTIC FLOWERS S.A.
174	POSA100718-1-16	380	Pink Floyd	63	GALAXYTRADE CORP CIA. LTDA
174	POSA100718-1-16	380	Pink Floyd	177	SANDE ECUADOR
174	POSA100718-1-16	380	Pink Floyd	181	GARDAEXPORT S.A.
174	POSA100718-1-16	380	Pink Floyd	220	HACIENDA SANTA FÉ, FESAHA CIA. LTDA
174	POSA100718-1-16	380	Pink Floyd	341	AGRINAG S.A.
174	POSA100718-1-16	380	Pink Floyd	440	SISAPAMBA ROSAS
174	POSA100718-1-16	380	Pink Floyd	442	QUALISA
174	POSA100718-1-16	380	Pink Floyd	446	ALBRA ROSE
174	POSA100718-1-16	380	Pink Floyd	449	FLORANA FARMS S.A.
174	POSA100718-1-16	380	Pink Floyd	455	MURADIAN ROSES
174	POSA100718-1-16	380	Pink Floyd	456	MERINO ROSES
174	POSA100718-1-16	380	Pink Floyd	458	LA TOSCANA
174	POSA100718-1-16	380	Pink Floyd	464	OLIMPO
174	POSA100718-1-16	380	Pink Floyd	480	FLORTECA
174	POSA100718-1-16	380	Pink Floyd	481	ALAMAR FLOWERS
175	POSA100718-1-17	514	Orange Crush	89	EDENROSES CIA. LTDA.
175	POSA100718-1-17	514	Orange Crush	92	DAVINCI ROSES
175	POSA100718-1-17	514	Orange Crush	177	SANDE ECUADOR
175	POSA100718-1-17	514	Orange Crush	220	HACIENDA SANTA FÉ, FESAHA CIA. LTDA
175	POSA100718-1-17	514	Orange Crush	242	AGROCOEX
175	POSA100718-1-17	514	Orange Crush	440	SISAPAMBA ROSAS
175	POSA100718-1-17	514	Orange Crush	442	QUALISA
175	POSA100718-1-17	514	Orange Crush	446	ALBRA ROSE
175	POSA100718-1-17	514	Orange Crush	449	FLORANA FARMS S.A.
175	POSA100718-1-17	514	Orange Crush	455	MURADIAN ROSES
175	POSA100718-1-17	514	Orange Crush	456	MERINO ROSES
175	POSA100718-1-17	514	Orange Crush	458	LA TOSCANA
176	MURB110718-1-1	1885	3D	177	SANDE ECUADOR
176	MURB110718-1-1	1885	3D	242	AGROCOEX
176	MURB110718-1-1	1885	3D	341	AGRINAG S.A.
176	MURB110718-1-1	1885	3D	439	INFLOWERS
176	MURB110718-1-1	1885	3D	442	QUALISA
176	MURB110718-1-1	1885	3D	449	FLORANA FARMS S.A.
176	MURB110718-1-1	1885	3D	455	MURADIAN ROSES
176	MURB110718-1-1	1885	3D	458	LA TOSCANA
176	MURB110718-1-1	1885	3D	482	MYSTIC FLOWERS S.A.
177	MURB110718-1-2	1885	3D	177	SANDE ECUADOR
177	MURB110718-1-2	1885	3D	242	AGROCOEX
177	MURB110718-1-2	1885	3D	341	AGRINAG S.A.
177	MURB110718-1-2	1885	3D	439	INFLOWERS
177	MURB110718-1-2	1885	3D	442	QUALISA
177	MURB110718-1-2	1885	3D	449	FLORANA FARMS S.A.
177	MURB110718-1-2	1885	3D	455	MURADIAN ROSES
177	MURB110718-1-2	1885	3D	458	LA TOSCANA
177	MURB110718-1-2	1885	3D	482	MYSTIC FLOWERS S.A.
178	MURB110718-1-3	3293	Magic Times	482	MYSTIC FLOWERS S.A.
179	MURB110718-1-4	104	Topaz	89	EDENROSES CIA. LTDA.
179	MURB110718-1-4	104	Topaz	92	DAVINCI ROSES
179	MURB110718-1-4	104	Topaz	112	FLORAROMA S. A.
179	MURB110718-1-4	104	Topaz	148	CERESFARMS CIA. LTDA.
179	MURB110718-1-4	104	Topaz	181	GARDAEXPORT S.A.
179	MURB110718-1-4	104	Topaz	195	FLOWER VILLAGE 
179	MURB110718-1-4	104	Topaz	220	HACIENDA SANTA FÉ, FESAHA CIA. LTDA
179	MURB110718-1-4	104	Topaz	242	AGROCOEX
179	MURB110718-1-4	104	Topaz	266	FLORES DEL COTOPAXI S.A
179	MURB110718-1-4	104	Topaz	341	AGRINAG S.A.
179	MURB110718-1-4	104	Topaz	439	INFLOWERS
179	MURB110718-1-4	104	Topaz	449	FLORANA FARMS S.A.
179	MURB110718-1-4	104	Topaz	455	MURADIAN ROSES
179	MURB110718-1-4	104	Topaz	458	LA TOSCANA
179	MURB110718-1-4	104	Topaz	464	OLIMPO
179	MURB110718-1-4	104	Topaz	479	TATIANA FLOWER
179	MURB110718-1-4	104	Topaz	482	MYSTIC FLOWERS S.A.
180	MURB110718-1-5	90	Cool Water	92	DAVINCI ROSES
180	MURB110718-1-5	90	Cool Water	112	FLORAROMA S. A.
180	MURB110718-1-5	90	Cool Water	181	GARDAEXPORT S.A.
180	MURB110718-1-5	90	Cool Water	195	FLOWER VILLAGE 
180	MURB110718-1-5	90	Cool Water	266	FLORES DEL COTOPAXI S.A
180	MURB110718-1-5	90	Cool Water	384	JOYGARDENS S.A.
180	MURB110718-1-5	90	Cool Water	391	FLORES VERDES S.A. FLORDES
180	MURB110718-1-5	90	Cool Water	439	INFLOWERS
180	MURB110718-1-5	90	Cool Water	442	QUALISA
180	MURB110718-1-5	90	Cool Water	446	ALBRA ROSE
180	MURB110718-1-5	90	Cool Water	458	LA TOSCANA
180	MURB110718-1-5	90	Cool Water	464	OLIMPO
180	MURB110718-1-5	90	Cool Water	482	MYSTIC FLOWERS S.A.
181	MURB110718-1-6	3003	LEMONADE	242	AGROCOEX
181	MURB110718-1-6	3003	LEMONADE	391	FLORES VERDES S.A. FLORDES
181	MURB110718-1-6	3003	LEMONADE	449	FLORANA FARMS S.A.
181	MURB110718-1-6	3003	LEMONADE	455	MURADIAN ROSES
181	MURB110718-1-6	3003	LEMONADE	464	OLIMPO
181	MURB110718-1-6	3003	LEMONADE	482	MYSTIC FLOWERS S.A.
182	MURB110718-1-7	111	Vendela	92	DAVINCI ROSES
182	MURB110718-1-7	111	Vendela	112	FLORAROMA S. A.
182	MURB110718-1-7	111	Vendela	181	GARDAEXPORT S.A.
182	MURB110718-1-7	111	Vendela	220	HACIENDA SANTA FÉ, FESAHA CIA. LTDA
182	MURB110718-1-7	111	Vendela	242	AGROCOEX
182	MURB110718-1-7	111	Vendela	266	FLORES DEL COTOPAXI S.A
182	MURB110718-1-7	111	Vendela	341	AGRINAG S.A.
182	MURB110718-1-7	111	Vendela	384	JOYGARDENS S.A.
182	MURB110718-1-7	111	Vendela	439	INFLOWERS
182	MURB110718-1-7	111	Vendela	440	SISAPAMBA ROSAS
182	MURB110718-1-7	111	Vendela	442	QUALISA
182	MURB110718-1-7	111	Vendela	455	MURADIAN ROSES
182	MURB110718-1-7	111	Vendela	458	LA TOSCANA
182	MURB110718-1-7	111	Vendela	464	OLIMPO
182	MURB110718-1-7	111	Vendela	480	FLORTECA
182	MURB110718-1-7	111	Vendela	481	ALAMAR FLOWERS
182	MURB110718-1-7	111	Vendela	482	MYSTIC FLOWERS S.A.
183	MURB110718-1-8	240	Esperance	92	DAVINCI ROSES
183	MURB110718-1-8	240	Esperance	112	FLORAROMA S. A.
183	MURB110718-1-8	240	Esperance	148	CERESFARMS CIA. LTDA.
183	MURB110718-1-8	240	Esperance	181	GARDAEXPORT S.A.
183	MURB110718-1-8	240	Esperance	220	HACIENDA SANTA FÉ, FESAHA CIA. LTDA
183	MURB110718-1-8	240	Esperance	242	AGROCOEX
183	MURB110718-1-8	240	Esperance	266	FLORES DEL COTOPAXI S.A
183	MURB110718-1-8	240	Esperance	341	AGRINAG S.A.
183	MURB110718-1-8	240	Esperance	439	INFLOWERS
183	MURB110718-1-8	240	Esperance	442	QUALISA
183	MURB110718-1-8	240	Esperance	446	ALBRA ROSE
183	MURB110718-1-8	240	Esperance	449	FLORANA FARMS S.A.
183	MURB110718-1-8	240	Esperance	455	MURADIAN ROSES
183	MURB110718-1-8	240	Esperance	458	LA TOSCANA
183	MURB110718-1-8	240	Esperance	464	OLIMPO
183	MURB110718-1-8	240	Esperance	482	MYSTIC FLOWERS S.A.
184	MURB110718-1-9	177	Sweet Unique	89	EDENROSES CIA. LTDA.
184	MURB110718-1-9	177	Sweet Unique	112	FLORAROMA S. A.
184	MURB110718-1-9	177	Sweet Unique	148	CERESFARMS CIA. LTDA.
184	MURB110718-1-9	177	Sweet Unique	181	GARDAEXPORT S.A.
184	MURB110718-1-9	177	Sweet Unique	195	FLOWER VILLAGE 
184	MURB110718-1-9	177	Sweet Unique	220	HACIENDA SANTA FÉ, FESAHA CIA. LTDA
184	MURB110718-1-9	177	Sweet Unique	242	AGROCOEX
184	MURB110718-1-9	177	Sweet Unique	266	FLORES DEL COTOPAXI S.A
184	MURB110718-1-9	177	Sweet Unique	439	INFLOWERS
184	MURB110718-1-9	177	Sweet Unique	442	QUALISA
184	MURB110718-1-9	177	Sweet Unique	458	LA TOSCANA
185	MURB110718-1-10	417	Deep Purple	89	EDENROSES CIA. LTDA.
185	MURB110718-1-10	417	Deep Purple	92	DAVINCI ROSES
185	MURB110718-1-10	417	Deep Purple	148	CERESFARMS CIA. LTDA.
185	MURB110718-1-10	417	Deep Purple	181	GARDAEXPORT S.A.
185	MURB110718-1-10	417	Deep Purple	220	HACIENDA SANTA FÉ, FESAHA CIA. LTDA
185	MURB110718-1-10	417	Deep Purple	242	AGROCOEX
185	MURB110718-1-10	417	Deep Purple	341	AGRINAG S.A.
185	MURB110718-1-10	417	Deep Purple	384	JOYGARDENS S.A.
185	MURB110718-1-10	417	Deep Purple	440	SISAPAMBA ROSAS
185	MURB110718-1-10	417	Deep Purple	442	QUALISA
185	MURB110718-1-10	417	Deep Purple	446	ALBRA ROSE
185	MURB110718-1-10	417	Deep Purple	449	FLORANA FARMS S.A.
185	MURB110718-1-10	417	Deep Purple	455	MURADIAN ROSES
185	MURB110718-1-10	417	Deep Purple	456	MERINO ROSES
185	MURB110718-1-10	417	Deep Purple	458	LA TOSCANA
185	MURB110718-1-10	417	Deep Purple	464	OLIMPO
185	MURB110718-1-10	417	Deep Purple	482	MYSTIC FLOWERS S.A.
185	MURB110718-1-10	417	Deep Purple	485	BELL&YASUNI
186	MURB110718-1-11	277	Freedom	92	DAVINCI ROSES
186	MURB110718-1-11	277	Freedom	112	FLORAROMA S. A.
186	MURB110718-1-11	277	Freedom	148	CERESFARMS CIA. LTDA.
186	MURB110718-1-11	277	Freedom	181	GARDAEXPORT S.A.
186	MURB110718-1-11	277	Freedom	195	FLOWER VILLAGE 
186	MURB110718-1-11	277	Freedom	220	HACIENDA SANTA FÉ, FESAHA CIA. LTDA
186	MURB110718-1-11	277	Freedom	242	AGROCOEX
186	MURB110718-1-11	277	Freedom	266	FLORES DEL COTOPAXI S.A
186	MURB110718-1-11	277	Freedom	341	AGRINAG S.A.
186	MURB110718-1-11	277	Freedom	384	JOYGARDENS S.A.
186	MURB110718-1-11	277	Freedom	391	FLORES VERDES S.A. FLORDES
186	MURB110718-1-11	277	Freedom	439	INFLOWERS
186	MURB110718-1-11	277	Freedom	442	QUALISA
186	MURB110718-1-11	277	Freedom	446	ALBRA ROSE
186	MURB110718-1-11	277	Freedom	449	FLORANA FARMS S.A.
186	MURB110718-1-11	277	Freedom	455	MURADIAN ROSES
186	MURB110718-1-11	277	Freedom	458	LA TOSCANA
186	MURB110718-1-11	277	Freedom	464	OLIMPO
186	MURB110718-1-11	277	Freedom	480	FLORTECA
186	MURB110718-1-11	277	Freedom	481	ALAMAR FLOWERS
186	MURB110718-1-11	277	Freedom	484	TOMAS FLOWERS GM
187	MURB110718-1-12	95	Sweetness	92	DAVINCI ROSES
187	MURB110718-1-12	95	Sweetness	112	FLORAROMA S. A.
187	MURB110718-1-12	95	Sweetness	148	CERESFARMS CIA. LTDA.
187	MURB110718-1-12	95	Sweetness	181	GARDAEXPORT S.A.
187	MURB110718-1-12	95	Sweetness	341	AGRINAG S.A.
187	MURB110718-1-12	95	Sweetness	391	FLORES VERDES S.A. FLORDES
187	MURB110718-1-12	95	Sweetness	439	INFLOWERS
187	MURB110718-1-12	95	Sweetness	442	QUALISA
187	MURB110718-1-12	95	Sweetness	455	MURADIAN ROSES
187	MURB110718-1-12	95	Sweetness	456	MERINO ROSES
187	MURB110718-1-12	95	Sweetness	464	OLIMPO
187	MURB110718-1-12	95	Sweetness	482	MYSTIC FLOWERS S.A.
187	MURB110718-1-12	95	Sweetness	485	BELL&YASUNI
188	MURB110718-1-13	1014	Brighton	187	FLORMARE S.A.
188	MURB110718-1-13	1014	Brighton	341	AGRINAG S.A.
188	MURB110718-1-13	1014	Brighton	440	SISAPAMBA ROSAS
188	MURB110718-1-13	1014	Brighton	442	QUALISA
188	MURB110718-1-13	1014	Brighton	449	FLORANA FARMS S.A.
188	MURB110718-1-13	1014	Brighton	455	MURADIAN ROSES
188	MURB110718-1-13	1014	Brighton	464	OLIMPO
188	MURB110718-1-13	1014	Brighton	479	TATIANA FLOWER
188	MURB110718-1-13	1014	Brighton	481	ALAMAR FLOWERS
188	MURB110718-1-13	1014	Brighton	482	MYSTIC FLOWERS S.A.
189	MURB110718-1-14	2179	Condor	478	FLORES LA UNION
190	MURB110718-1-15	3269	Carnation Green	89	EDENROSES CIA. LTDA.
190	MURB110718-1-15	3269	Carnation Green	478	FLORES LA UNION
191	MURB110718-1-16	2084	Amadeo	462	FLOREQUISA
192	EURA100718-1-1	208	Explorer	177	SANDE ECUADOR
192	EURA100718-1-1	208	Explorer	181	GARDAEXPORT S.A.
192	EURA100718-1-1	208	Explorer	242	AGROCOEX
192	EURA100718-1-1	208	Explorer	341	AGRINAG S.A.
192	EURA100718-1-1	208	Explorer	391	FLORES VERDES S.A. FLORDES
192	EURA100718-1-1	208	Explorer	439	INFLOWERS
192	EURA100718-1-1	208	Explorer	440	SISAPAMBA ROSAS
192	EURA100718-1-1	208	Explorer	442	QUALISA
192	EURA100718-1-1	208	Explorer	446	ALBRA ROSE
192	EURA100718-1-1	208	Explorer	449	FLORANA FARMS S.A.
192	EURA100718-1-1	208	Explorer	455	MURADIAN ROSES
192	EURA100718-1-1	208	Explorer	456	MERINO ROSES
192	EURA100718-1-1	208	Explorer	458	LA TOSCANA
192	EURA100718-1-1	208	Explorer	479	TATIANA FLOWER
192	EURA100718-1-1	208	Explorer	480	FLORTECA
192	EURA100718-1-1	208	Explorer	484	TOMAS FLOWERS GM
193	EURA100718-1-2	114	Mondial	92	DAVINCI ROSES
193	EURA100718-1-2	114	Mondial	112	FLORAROMA S. A.
193	EURA100718-1-2	114	Mondial	148	CERESFARMS CIA. LTDA.
193	EURA100718-1-2	114	Mondial	181	GARDAEXPORT S.A.
193	EURA100718-1-2	114	Mondial	242	AGROCOEX
193	EURA100718-1-2	114	Mondial	266	FLORES DEL COTOPAXI S.A
193	EURA100718-1-2	114	Mondial	341	AGRINAG S.A.
193	EURA100718-1-2	114	Mondial	391	FLORES VERDES S.A. FLORDES
193	EURA100718-1-2	114	Mondial	439	INFLOWERS
193	EURA100718-1-2	114	Mondial	440	SISAPAMBA ROSAS
193	EURA100718-1-2	114	Mondial	442	QUALISA
193	EURA100718-1-2	114	Mondial	446	ALBRA ROSE
193	EURA100718-1-2	114	Mondial	449	FLORANA FARMS S.A.
193	EURA100718-1-2	114	Mondial	455	MURADIAN ROSES
193	EURA100718-1-2	114	Mondial	456	MERINO ROSES
193	EURA100718-1-2	114	Mondial	458	LA TOSCANA
193	EURA100718-1-2	114	Mondial	464	OLIMPO
193	EURA100718-1-2	114	Mondial	479	TATIANA FLOWER
193	EURA100718-1-2	114	Mondial	480	FLORTECA
193	EURA100718-1-2	114	Mondial	481	ALAMAR FLOWERS
193	EURA100718-1-2	114	Mondial	484	TOMAS FLOWERS GM
194	EURA100718-1-3	380	Pink Floyd	63	GALAXYTRADE CORP CIA. LTDA
194	EURA100718-1-3	380	Pink Floyd	177	SANDE ECUADOR
194	EURA100718-1-3	380	Pink Floyd	341	AGRINAG S.A.
194	EURA100718-1-3	380	Pink Floyd	440	SISAPAMBA ROSAS
194	EURA100718-1-3	380	Pink Floyd	442	QUALISA
194	EURA100718-1-3	380	Pink Floyd	446	ALBRA ROSE
194	EURA100718-1-3	380	Pink Floyd	449	FLORANA FARMS S.A.
194	EURA100718-1-3	380	Pink Floyd	455	MURADIAN ROSES
194	EURA100718-1-3	380	Pink Floyd	456	MERINO ROSES
194	EURA100718-1-3	380	Pink Floyd	458	LA TOSCANA
194	EURA100718-1-3	380	Pink Floyd	480	FLORTECA
194	EURA100718-1-3	380	Pink Floyd	481	ALAMAR FLOWERS
195	EURA100718-1-4	114	Mondial	148	CERESFARMS CIA. LTDA.
195	EURA100718-1-4	114	Mondial	181	GARDAEXPORT S.A.
195	EURA100718-1-4	114	Mondial	266	FLORES DEL COTOPAXI S.A
195	EURA100718-1-4	114	Mondial	304	ARBUSTA CIA. LTDA.
195	EURA100718-1-4	114	Mondial	341	AGRINAG S.A.
195	EURA100718-1-4	114	Mondial	440	SISAPAMBA ROSAS
195	EURA100718-1-4	114	Mondial	442	QUALISA
195	EURA100718-1-4	114	Mondial	449	FLORANA FARMS S.A.
195	EURA100718-1-4	114	Mondial	455	MURADIAN ROSES
195	EURA100718-1-4	114	Mondial	456	MERINO ROSES
195	EURA100718-1-4	114	Mondial	464	OLIMPO
195	EURA100718-1-4	114	Mondial	481	ALAMAR FLOWERS
196	EURA100718-1-5	380	Pink Floyd	92	DAVINCI ROSES
196	EURA100718-1-5	380	Pink Floyd	112	FLORAROMA S. A.
196	EURA100718-1-5	380	Pink Floyd	148	CERESFARMS CIA. LTDA.
196	EURA100718-1-5	380	Pink Floyd	181	GARDAEXPORT S.A.
196	EURA100718-1-5	380	Pink Floyd	220	HACIENDA SANTA FÉ, FESAHA CIA. LTDA
196	EURA100718-1-5	380	Pink Floyd	341	AGRINAG S.A.
196	EURA100718-1-5	380	Pink Floyd	440	SISAPAMBA ROSAS
196	EURA100718-1-5	380	Pink Floyd	442	QUALISA
196	EURA100718-1-5	380	Pink Floyd	446	ALBRA ROSE
196	EURA100718-1-5	380	Pink Floyd	449	FLORANA FARMS S.A.
196	EURA100718-1-5	380	Pink Floyd	455	MURADIAN ROSES
196	EURA100718-1-5	380	Pink Floyd	456	MERINO ROSES
196	EURA100718-1-5	380	Pink Floyd	458	LA TOSCANA
196	EURA100718-1-5	380	Pink Floyd	464	OLIMPO
196	EURA100718-1-5	380	Pink Floyd	480	FLORTECA
196	EURA100718-1-5	380	Pink Floyd	481	ALAMAR FLOWERS
197	EURA100718-1-6	380	Pink Floyd	63	GALAXYTRADE CORP CIA. LTDA
197	EURA100718-1-6	380	Pink Floyd	220	HACIENDA SANTA FÉ, FESAHA CIA. LTDA
197	EURA100718-1-6	380	Pink Floyd	341	AGRINAG S.A.
197	EURA100718-1-6	380	Pink Floyd	440	SISAPAMBA ROSAS
197	EURA100718-1-6	380	Pink Floyd	442	QUALISA
197	EURA100718-1-6	380	Pink Floyd	449	FLORANA FARMS S.A.
197	EURA100718-1-6	380	Pink Floyd	455	MURADIAN ROSES
197	EURA100718-1-6	380	Pink Floyd	456	MERINO ROSES
197	EURA100718-1-6	380	Pink Floyd	481	ALAMAR FLOWERS
198	EURA100718-1-7	277	Freedom	148	CERESFARMS CIA. LTDA.
198	EURA100718-1-7	277	Freedom	181	GARDAEXPORT S.A.
198	EURA100718-1-7	277	Freedom	220	HACIENDA SANTA FÉ, FESAHA CIA. LTDA
198	EURA100718-1-7	277	Freedom	266	FLORES DEL COTOPAXI S.A
198	EURA100718-1-7	277	Freedom	304	ARBUSTA CIA. LTDA.
198	EURA100718-1-7	277	Freedom	440	SISAPAMBA ROSAS
198	EURA100718-1-7	277	Freedom	442	QUALISA
198	EURA100718-1-7	277	Freedom	449	FLORANA FARMS S.A.
198	EURA100718-1-7	277	Freedom	455	MURADIAN ROSES
198	EURA100718-1-7	277	Freedom	456	MERINO ROSES
198	EURA100718-1-7	277	Freedom	464	OLIMPO
198	EURA100718-1-7	277	Freedom	481	ALAMAR FLOWERS
199	EURA100718-1-8	380	Pink Floyd	63	GALAXYTRADE CORP CIA. LTDA
199	EURA100718-1-8	380	Pink Floyd	177	SANDE ECUADOR
199	EURA100718-1-8	380	Pink Floyd	181	GARDAEXPORT S.A.
199	EURA100718-1-8	380	Pink Floyd	220	HACIENDA SANTA FÉ, FESAHA CIA. LTDA
199	EURA100718-1-8	380	Pink Floyd	341	AGRINAG S.A.
199	EURA100718-1-8	380	Pink Floyd	440	SISAPAMBA ROSAS
199	EURA100718-1-8	380	Pink Floyd	442	QUALISA
199	EURA100718-1-8	380	Pink Floyd	446	ALBRA ROSE
199	EURA100718-1-8	380	Pink Floyd	449	FLORANA FARMS S.A.
199	EURA100718-1-8	380	Pink Floyd	455	MURADIAN ROSES
199	EURA100718-1-8	380	Pink Floyd	456	MERINO ROSES
199	EURA100718-1-8	380	Pink Floyd	458	LA TOSCANA
199	EURA100718-1-8	380	Pink Floyd	464	OLIMPO
199	EURA100718-1-8	380	Pink Floyd	480	FLORTECA
199	EURA100718-1-8	380	Pink Floyd	481	ALAMAR FLOWERS
