25 bunch per stem

price::::

50= 0.22
60= 0.24
70= 0.28

MONDIAL 80/901 A CXC-15 
TOPAZ 80/90 CXC-20
JANEIRO 80/90 0.45/0.50

box size:
hb 120*30*30
qb 120*20*20

 qb 50/60 -- 100 stems--4 

 hb 50    -- 300 stems--12
    60 ----- 300 Stems--12
    70 ----- 250 stems--10
80/90/100 -- 200 stems--8



box weight:

50/60--  21 kl
70/80--  19 kl
